C:\java\java8\javaWebProjectTest\core\src\main\java\com\annonces\nnews\core\model\Author.java
C:\java\java8\javaWebProjectTest\core\src\main\java\com\annonces\nnews\core\model\Annonces.java
C:\java\java8\javaWebProjectTest\core\src\main\java\com\annonces\nnews\core\model\ListeAnnonces.java
